Market Basket Analysis: Groceries Dataset
…
  item_rates <- colMeans(cluster_matrix[transaction_ids, , drop = FALSE])

  tibble(
    cluster = cl,
    item = names(item_rates),
    within_cluster_support = item_rates
  ) %>%
    arrange(desc(within_cluster_support)) %>%
    slice_head(n = 10)
})

cluster_profiles

## # A tibble: 40 x 3
##    cluster item               within_cluster_support
##    <chr>   <chr>                               <dbl>
##  1 1       whole milk                          0.613
##  2 1       other vegetables                    0.578
##  3 1       root vegetables                     0.446
##  4 1       yogurt                              0.318
##  5 1       whipped/sour cream                  0.287
##  6 1       rolls/buns                          0.241
##  7 1       tropical fruit                      0.222
##  8 1       citrus fruit                        0.218
##  9 1       beef                                0.209
## 10 1       domestic eggs                       0.201
## # i 30 more rows
…
##  8     8                     15670.
##  9     9                     14655.
## 10    10                     13731.
## 
## $clustering$cluster_counts
## # A tibble: 4 x 2
##   cluster count
##   <fct>   <int>
## 1 1        1458
## 2 2        1639
## 3 3        5826
## 4 4         912
## 
## $clustering$cluster_profiles
## # A tibble: 40 x 4
##    cluster item               within_cluster_support within_cluster_support_pct
##    <chr>   <chr>                               <dbl>                      <dbl>
##  1 1       whole milk                          0.613                       61.3
##  2 1       other vegetables                    0.578                       57.8
##  3 1       root vegetables                     0.446                       44.6
##  4 1       yogurt                              0.318                       31.8
##  5 1       whipped/sour cream                  0.287                       28.7
##  6 1       rolls/buns                          0.241                       24.1
##  7 1       tropical fruit                      0.222                       22.2
##  8 1       citrus fruit                        0.218                       21.8
##  9 1       beef                                0.209                       20.9
## 10 1       domestic eggs                       0.201                       20.1
## # i 30 more rows
…
