FPP3 Chapter 2 Graphics Exercise
…
3.2 Convert to a
quarterly tsibble

mytimeseries <- tute1 |>
  mutate(Quarter = yearquarter(Quarter)) |>
  as_tsibble(index = Quarter)

mytimeseries

## # A tsibble: 100 x 4 [1Q]
##    Quarter Sales AdBudget   GDP
##      <qtr> <dbl>    <dbl> <dbl>
##  1 1981 Q1 1020.     659.  252.
##  2 1981 Q2  889.     589   291.
##  3 1981 Q3  795      512.  291.
##  4 1981 Q4 1004.     614.  292.
##  5 1982 Q1 1058.     647.  279.
##  6 1982 Q2  944.     602   254 
##  7 1982 Q3  778.     531.  296.
##  8 1982 Q4  932.     608.  272.
##  9 1983 Q1  996.     638.  260.
## 10 1983 Q2  908.     582.  280.
## # ℹ 90 more rows
…
4 USgas: annual natural
gas consumption by state (New England)

4.1 Create a tsibble from
us_total (year index, state key)

data("us_total", package = "USgas")

gas_ts <- us_total |>
  as_tsibble(index = year, key = state)

gas_ts

## # A tsibble: 1,266 x 3 [1Y]
## # Key:       state [53]
##     year state        y
##    <int> <chr>    <int>
##  1  1997 Alabama 324158
##  2  1998 Alabama 329134
##  3  1999 Alabama 337270
##  4  2000 Alabama 353614
##  5  2001 Alabama 332693
##  6  2002 Alabama 379343
##  7  2003 Alabama 350345
##  8  2004 Alabama 382367
##  9  2005 Alabama 353156
## 10  2006 Alabama 391093
## # ℹ 1,256 more rows
…
5.2 Create a tsibble
identical in structure to tsibble::tourism

tourism_ts <- tourism_raw |>
  mutate(Quarter = yearquarter(Quarter)) |>
  as_tsibble(
    index = Quarter,
    key = c(State, Region, Purpose)
  )

tourism_ts

## # A tsibble: 24,320 x 5 [1Q]
## # Key:       State, Region, Purpose [304]
##    Quarter Region   State Purpose  Trips
##      <qtr> <chr>    <chr> <chr>    <dbl>
##  1 1998 Q1 Canberra ACT   Business 150. 
##  2 1998 Q2 Canberra ACT   Business  99.9
##  3 1998 Q3 Canberra ACT   Business 130. 
##  4 1998 Q4 Canberra ACT   Business 102. 
##  5 1999 Q1 Canberra ACT   Business  95.5
##  6 1999 Q2 Canberra ACT   Business 229. 
##  7 1999 Q3 Canberra ACT   Business 109. 
##  8 1999 Q4 Canberra ACT   Business 159. 
##  9 2000 Q1 Canberra ACT   Business 105. 
## 10 2000 Q2 Canberra ACT   Business 202. 
## # ℹ 24,310 more rows
…
5.5 Total trips by State
(combining Region and Purpose)

tourism_state_total <- tourism_ts |>
  index_by(Quarter) |>
  group_by(State) |>
  summarise(Trips = sum(Trips, na.rm = TRUE)) |>
  as_tsibble(index = Quarter, key = State)

tourism_state_total

## # A tsibble: 640 x 3 [1Q]
## # Key:       State [8]
##    State Quarter Trips
##    <chr>   <qtr> <dbl>
##  1 ACT   1998 Q1  551.
##  2 ACT   1998 Q2  416.
##  3 ACT   1998 Q3  436.
##  4 ACT   1998 Q4  450.
##  5 ACT   1999 Q1  379.
##  6 ACT   1999 Q2  558.
##  7 ACT   1999 Q3  449.
##  8 ACT   1999 Q4  595.
##  9 ACT   2000 Q1  600.
## 10 ACT   2000 Q2  557.
## # ℹ 630 more rows
…
