Homework 3: FPP3 Toolbox Exercises
…
compare_tbl <- drift_fc |>
  as_tibble() |>
  select(t, .mean) |>
  left_join(line_tbl, by = "t") |>
  mutate(abs_diff = abs(.mean - line_value))

max_diff_tbl <- compare_tbl |>
  summarise(max_abs_difference = max(abs_diff))

tibble(
  slope_from_first_last_line = slope_first_last,
  slope_from_drift_model = drift_slope
)

## # A tibble: 1,258 × 2
##    slope_from_first_last_line slope_from_drift_model
##                         <dbl>                  <dbl>
##  1                        NaN                 0.0608
##  2                        NaN                 0.0608
##  3                        NaN                 0.0608
##  4                        NaN                 0.0608
##  5                        NaN                 0.0608
##  6                        NaN                 0.0608
##  7                        NaN                 0.0608
##  8                        NaN                 0.0608
##  9                        NaN                 0.0608
## 10                        NaN                 0.0608
## # ℹ 1,248 more rows
…
